…
#> 88  /tmp/RtmpLNGpjZ/1dd017612444/gganim_plot0087.png
#> 89  /tmp/RtmpLNGpjZ/1dd017612444/gganim_plot0088.png
#> 90  /tmp/RtmpLNGpjZ/1dd017612444/gganim_plot0089.png
#> 91  /tmp/RtmpLNGpjZ/1dd017612444/gganim_plot0090.png
#> 92  /tmp/RtmpLNGpjZ/1dd017612444/gganim_plot0091.png
#> 93  /tmp/RtmpLNGpjZ/1dd017612444/gganim_plot0092.png
#> 94  /tmp/RtmpLNGpjZ/1dd017612444/gganim_plot0093.png
#> 95  /tmp/RtmpLNGpjZ/1dd017612444/gganim_plot0094.png
#> 96  /tmp/RtmpLNGpjZ/1dd017612444/gganim_plot0095.png
#> 97  /tmp/RtmpLNGpjZ/1dd017612444/gganim_plot0096.png
#> 98  /tmp/RtmpLNGpjZ/1dd017612444/gganim_plot0097.png
#> 99  /tmp/RtmpLNGpjZ/1dd017612444/gganim_plot0098.png
#> 100 /tmp/RtmpLNGpjZ/1dd017612444/gganim_plot0099.png
#> 101 /tmp/RtmpLNGpjZ/1dd017612444/gganim_plot0100.png
#> # A tibble: 11,988 × 4
#>    word  object coocs trial
#>    <chr> <chr>  <dbl> <dbl>
#>  1 1     1          0     0
#>  2 1     2          0     0
#>  3 1     3          0     0
#>  4 1     4          0     0
#>  5 1     5          0     0
#>  6 1     6          0     0
#>  7 1     7          0     0
#>  8 1     8          0     0
#>  9 1     9          0     0
#> 10 1     10         0     0
#> # ℹ 11,978 more rows
…
